./logs/http.log.txt [1644855364778] POST /api/individual 
./logs/http.log.txt [1644855393753] POST /api/individual 
./logs/http.log.txt [1644855405663] POST /api/individual 
./logs/http.log.txt [1644855414988] POST /api/individual 
./logs/http.log.txt [1644855424287] GET /api/individual/1 
./logs/http.log.txt [1644855444877] POST /api/family/ 
./logs/http.log.txt [1644855472615] POST /api/family/ 
./logs/http.log.txt [1644855503091] GET /api/family/3 
./logs/http.log.txt [1644855511182] GET /api/individual/3 
./logs/http.log.txt [1644855617864] POST /api/family/ 
./logs/http.log.txt [1644855954445] POST /api/individual 
./logs/http.log.txt [1644856298815] GET /api/family/3 
./logs/http.log.txt [1644856303867] GET /api/family/4 
./logs/http.log.txt [1644856333284] GET /api/family/5 
./logs/http.log.txt [1644856336789] GET /api/family/dsfsf 
./logs/http.log.txt [1644856548930] GET /api/family/dsfsf 
./logs/http.log.txt [1644856627621] GET /api/family/dsfsf 
./logs/http.log.txt [1644856734595] GET /api/family/dsfsf 
./logs/http.log.txt [1644856956767] GET /api/family/dsfsf 
./logs/http.log.txt [1644856961372] GET /api/family/4 
./logs/http.log.txt [1644856964545] GET /api/family/3 
./logs/http.log.txt [1644856968275] GET /api/family/2 
./logs/http.log.txt [1644856971119] GET /api/family/5 
./logs/http.log.txt [1644857128304] GET /api/family/5 
./logs/http.log.txt [1644857135242] GET /api/family/4 
./logs/http.log.txt [1644857160174] DELETE /api/family/close/4 
./logs/http.log.txt [1644857217663] DELETE /api/family/close/4 
./logs/http.log.txt [1644857438719] DELETE /api/family/close/4 
./logs/http.log.txt [1644857511845] DELETE /api/family/close/4 
./logs/http.log.txt [1644857575846] DELETE /api/family/close/5 
./logs/http.log.txt [1644857662863] GET /api/family/4 
./logs/http.log.txt [1644857673340] GET /api/family/4 
./logs/http.log.txt [1644857680014] GET /api/family/5 
./logs/http.log.txt [1644858193620] POST /api/family/add 
./logs/http.log.txt [1644858208586] POST /api/family/add 
./logs/http.log.txt [1644858276193] POST /api/family/add 
./logs/http.log.txt [1644858413995] POST /api/family/add 
./logs/http.log.txt [1644858452607] POST /api/family/add 
./logs/http.log.txt [1644858526664] POST /api/family/add 
./logs/http.log.txt [1644858580731] POST /api/family/add 
./logs/http.log.txt [1644858592854] POST /api/family/add 
./logs/http.log.txt [1644860434738] POST /api/family/add 
./logs/http.log.txt [1644860443754] POST /api/family/add 
./logs/http.log.txt [1644860461040] POST /api/family/add 
./logs/http.log.txt [1644860463875] POST /api/family/add 
./logs/http.log.txt [1644860465478] POST /api/family/add 
./logs/http.log.txt [1644860471076] POST /api/family/add 
./logs/http.log.txt [1644860528862] GET /api/family/5 
./logs/http.log.txt [1644860532876] GET /api/family/4 
./logs/http.log.txt [1644860927392] GET /api/family/4 
./logs/http.log.txt [1644860983941] DELETE /api/family/remove 
./logs/http.log.txt [1644861014367] DELETE /api/family/remove 
./logs/http.log.txt [1644861025663] GET /api/individual/5 
./logs/http.log.txt [1644869497064] POST /api/business 
./logs/http.log.txt [1644869673862] POST /api/business 
./logs/http.log.txt [1644869692945] POST /api/business 
./logs/http.log.txt [1644869722948] POST /api/individual 
./logs/http.log.txt [1644869786959] POST /api/account/b2i 
./logs/http.log.txt [1644869892386] POST /api/account/b2i 
./logs/http.log.txt [1644869915894] POST /api/account/b2i 
./logs/http.log.txt [1644870159465] POST /api/account/b2i 
./logs/http.log.txt [1644872391354] POST /api/account/b2b 
./logs/http.log.txt [1644872442740] POST /api/account/b2b 
./logs/http.log.txt [1644872498285] POST /api/business 
./logs/http.log.txt [1644872516365] POST /api/account/b2bfx 
./logs/http.log.txt [1644872535734] POST /api/account/b2bfx 
./logs/http.log.txt [1644872741192] POST /api/individual 
./logs/http.log.txt [1644872749418] POST /api/individual 
./logs/http.log.txt [1644872764941] POST /api/individual 
./logs/http.log.txt [1644872779547] POST /api/individual 
./logs/http.log.txt [1644872875521] POST /api/individual 
./logs/http.log.txt [1644872894025] POST /api/individual 
./logs/http.log.txt [1644872974123] POST /api/individual 
./logs/http.log.txt [1644873257012] POST /api/individual 
./logs/http.log.txt [1644873416852] POST /api/individual 
./logs/http.log.txt [1644873527118] POST /api/individual 
./logs/http.log.txt [1644873573881] POST /api/individual 
./logs/http.log.txt [1644873585246] POST /api/individual 
./logs/http.log.txt [1644873795225] POST /api/individual 
./logs/http.log.txt [1644873816716] POST /api/individual 
./logs/http.log.txt [1644873873167] POST /api/individual 
./logs/http.log.txt [1644873915910] POST /api/individual 
./logs/http.log.txt [1644874098242] POST /api/individual 
./logs/http.log.txt [1644874396246] POST /api/individual 
./logs/http.log.txt [1644874404238] POST /api/individual 
./logs/http.log.txt [1644874426005] POST /api/individual 
./logs/http.log.txt [1644874543698] POST /api/individual 
./logs/http.log.txt [1644874726733] POST /api/individual 
./logs/http.log.txt [1644874733775] POST /api/individual 
./logs/http.log.txt [1644874822402] POST /api/individual 
./logs/http.log.txt [1644874840595] POST /api/individual 
./logs/http.log.txt [1644875122206] POST /api/business 
./logs/http.log.txt [1644875475278] POST /api/business 
./logs/http.log.txt [1644875490680] POST /api/business 
./logs/http.log.txt [1644875533334] POST /api/business 
./logs/http.log.txt [1644875576501] POST /api/business 
./logs/http.log.txt [1644875586738] POST /api/business 
./logs/http.log.txt [1644875882421] POST /api/business 
./logs/http.log.txt [1644875907576] POST /api/business 
./logs/http.log.txt [1644875997680] POST /api/business 
./logs/http.log.txt [1644876288310] POST /api/business 
./logs/http.log.txt [1644876296031] POST /api/individual 
./logs/http.log.txt [1644876303670] POST /api/individual 
./logs/http.log.txt [1644876317485] POST /api/individual 
./logs/http.log.txt [1644876373762] POST /api/business 
./logs/http.log.txt [1644876385097] POST /api/business 
./logs/http.log.txt [1644876503498] POST /api/business 
./logs/http.log.txt [1644876511788] POST /api/business 
./logs/http.log.txt [1644876737343] POST /api/business 
./logs/http.log.txt [1644876813697] POST /api/business 
./logs/http.log.txt [1644876815031] POST /api/business 
./logs/http.log.txt [1644876873214] POST /api/family/ 
./logs/http.log.txt [1644876938346] POST /api/family/ 
./logs/http.log.txt [1644876957717] POST /api/family/ 
./logs/http.log.txt [1644877010467] POST /api/family/ 
./logs/http.log.txt [1644877028329] POST /api/family/ 
./logs/http.log.txt [1644877513153] PUT /api/account/status 
./logs/http.log.txt [1644877885821] PUT /api/account/status 
./logs/http.log.txt [1644877921173] PUT /api/account/status 
./logs/http.log.txt [1644878048850] PUT /api/account/status 
./logs/http.log.txt [1644878600353] PUT /api/account/status 
./logs/http.log.txt [1644878653010] PUT /api/account/status 
./logs/http.log.txt [1644878662069] PUT /api/account/status 
./logs/http.log.txt [1644878673940] PUT /api/account/status 
./logs/http.log.txt [1644878680844] PUT /api/account/status 
./logs/http.log.txt [1644878691310] PUT /api/account/status 
./logs/http.log.txt [1644878882586] PUT /api/account/status 
./logs/http.log.txt [1644878904116] PUT /api/account/status 
./logs/http.log.txt [1644878987964] POST /api/family/ 
./logs/http.log.txt [1644879041763] POST /api/family/ 
./logs/http.log.txt [1644879114615] POST /api/family/ 
./logs/http.log.txt [1644879124968] POST /api/family/ 
./logs/http.log.txt [1644879202602] POST /api/family/ 
./logs/http.log.txt [1644879211868] POST /api/family/ 
./logs/http.log.txt [1644879237318] POST /api/individual 
./logs/http.log.txt [1644879244262] POST /api/individual 
./logs/http.log.txt [1644879271775] POST /api/family/ 
./logs/http.log.txt [1644879379105] POST /api/family/ 
./logs/http.log.txt [1644879420037] POST /api/family/ 
./logs/http.log.txt [1644879468251] POST /api/family/ 
./logs/http.log.txt [1644879625064] POST /api/individual 
./logs/http.log.txt [1644879646220] POST /api/family/ 
./logs/http.log.txt [1644879699887] POST /api/family/ 
./logs/http.log.txt [1644879826990] POST /api/family/ 
./logs/http.log.txt [1644880414469] POST /api/family/ 
./logs/http.log.txt [1644880544151] POST /api/business 
./logs/http.log.txt [1644880547327] POST /api/business 
./logs/http.log.txt [1644880555822] POST /api/account/b2b 
./logs/http.log.txt [1644881110298] POST /api/account/b2b 
./logs/http.log.txt [1644882039106] POST /api/account/b2b 
./logs/http.log.txt [1644882052201] POST /api/account/b2b 
./logs/http.log.txt [1644882116546] PUT /api/account/status 
./logs/http.log.txt [1644882125524] PUT /api/account/status 
./logs/http.log.txt [1644882137920] POST /api/account/b2b 
./logs/http.log.txt [1644882151107] PUT /api/account/status 
./logs/http.log.txt [1644882188838] POST /api/account/b2b 
./logs/http.log.txt [1644882197095] POST /api/account/b2b 
./logs/http.log.txt [1644882214040] POST /api/account/b2b 
./logs/http.log.txt [1644882305152] POST /api/business 
./logs/http.log.txt [1644882318574] POST /api/account/b2b 
./logs/http.log.txt [1644882328467] POST /api/account/b2b 
./logs/http.log.txt [1644882337726] POST /api/account/b2b 
./logs/http.log.txt [1644882361620] POST /api/account/b2b 
./logs/http.log.txt [1644882387506] POST /api/account/b2b 
./logs/http.log.txt [1644882462135] POST /api/account/b2b 
./logs/http.log.txt [1644882537817] POST /api/account/b2b 
./logs/http.log.txt [1644882560752] POST /api/account/b2b 
./logs/http.log.txt [1644882677127] POST /api/account/b2b 
./logs/http.log.txt [1644882938136] POST /api/account/b2b 
./logs/http.log.txt [1644883119529] POST /api/account/b2b 
./logs/http.log.txt [1644883154617] POST /api/business 
./logs/http.log.txt [1644883189583] POST /api/account/b2b 
./logs/http.log.txt [1644883226568] POST /api/account/b2b 
./logs/http.log.txt [1644883322912] POST /api/business 
./logs/http.log.txt [1644883327773] POST /api/business 
./logs/http.log.txt [1644883336322] POST /api/business 
./logs/http.log.txt [1644883358263] POST /api/account/b2b 
./logs/http.log.txt [1644883453157] POST /api/account/b2b 
./logs/http.log.txt [1644883464473] POST /api/business 
./logs/http.log.txt [1644883480447] POST /api/account/b2b 
./logs/http.log.txt [1644883503263] POST /api/account/b2b 
./logs/http.log.txt [1644883633145] POST /api/account/b2b 
./logs/http.log.txt [1644883758791] POST /api/account/b2b 
./logs/http.log.txt [1644883863519] POST /api/account/b2b 
./logs/http.log.txt [1644883949819] POST /api/account/b2b 
./logs/http.log.txt [1644885038104] POST /api/account/b2b 
./logs/http.log.txt [1644885658496] POST /api/account/b2b 
./logs/http.log.txt [1644885688825] POST /api/account/b2b 
./logs/http.log.txt [1644885820114] POST /api/account/b2b 
./logs/http.log.txt [1644885853695] PUT /api/account/status 
./logs/http.log.txt [1644885857592] POST /api/account/b2b 
./logs/http.log.txt [1644885868310] PUT /api/account/status 
./logs/http.log.txt [1644885886159] POST /api/account/b2b 
./logs/http.log.txt [1644885953392] POST /api/account/b2b 
./logs/http.log.txt [1644885965240] POST /api/account/b2b 
./logs/http.log.txt [1644885995242] PUT /api/account/status 
./logs/http.log.txt [1644886062896] PUT /api/account/status 
./logs/http.log.txt [1644886066963] PUT /api/account/status 
./logs/http.log.txt [1644886186967] PUT /api/account/status 
./logs/http.log.txt [1644886204539] PUT /api/account/status 
./logs/http.log.txt [1644886215812] PUT /api/account/status 
./logs/http.log.txt [1644886275053] PUT /api/account/status 
./logs/http.log.txt [1644886280446] PUT /api/account/status 
./logs/http.log.txt [1644886292933] PUT /api/account/status 
./logs/http.log.txt [1644886426518] POST /api/account/b2b 
./logs/http.log.txt [1644886471765] POST /api/account/b2b 
./logs/http.log.txt [1644886510863] POST /api/business 
./logs/http.log.txt [1644886519534] POST /api/business 
./logs/http.log.txt [1644886561232] POST /api/account/b2b 
./logs/http.log.txt [1644886646400] POST /api/individual 
./logs/http.log.txt [1644886677045] POST /api/account/b2i 
./logs/http.log.txt [1644886704304] POST /api/account/b2i 
./logs/http.log.txt [1644886707808] POST /api/account/b2i 
./logs/http.log.txt [1644886718986] POST /api/account/b2i 
./logs/http.log.txt [1644886760302] POST /api/account/b2i 
./logs/http.log.txt [1644886827952] POST /api/account/b2i 
./logs/http.log.txt [1644886877373] POST /api/account/b2i 
./logs/http.log.txt [1644887007185] POST /api/business 
./logs/http.log.txt [1644887035560] POST /api/account/b2i 
./logs/http.log.txt [1644887055177] POST /api/business 
./logs/http.log.txt [1644887074391] POST /api/account/b2i 
./logs/http.log.txt [1644887081871] POST /api/account/b2i 
./logs/http.log.txt [1644887100053] POST /api/account/b2i 
./logs/http.log.txt [1644887118700] POST /api/account/b2i 
./logs/http.log.txt [1644887200664] POST /api/account/f2b 
./logs/http.log.txt [1644887224146] POST /api/account/f2b 
./logs/http.log.txt [1644887237303] POST /api/account/f2b 
./logs/http.log.txt [1644887290899] PUT /api/account/status 
./logs/http.log.txt [1644887308044] PUT /api/account/status 
./logs/http.log.txt [1644887457509] PUT /api/account/status 
./logs/http.log.txt [1644887518329] POST /api/family/ 
./logs/http.log.txt [1644887559681] POST /api/account/f2b 
./logs/http.log.txt [1644887659939] DELETE /api/family/close/29 
./logs/http.log.txt [1644887685098] DELETE /api/family/close/29 
./logs/http.log.txt [1644887714532] POST /api/account/f2b 
./logs/http.log.txt [1644887729552] POST /api/account/f2b 
./logs/http.log.txt [1644887814886] POST /api/account/f2b 
./logs/http.log.txt [1644887865609] POST /api/family/ 
./logs/http.log.txt [1644887933852] POST /api/account/f2b 
./logs/http.log.txt [1644888001840] POST /api/account/f2b 
./logs/http.log.txt [1644888028242] POST /api/account/f2b 
./logs/http.log.txt [1644888739931] POST /api/account/f2b 
./logs/http.log.txt [1644888864604] POST /api/family/ 
./logs/http.log.txt [1644888883973] POST /api/account/f2b 
./logs/http.log.txt [1644888901599] POST /api/account/f2b 
./logs/http.log.txt [1644888906945] POST /api/account/f2b 
./logs/http.log.txt [1644888934957] POST /api/account/b2bfx 
./logs/http.log.txt [1644888943216] POST /api/account/b2bfx 
./logs/http.log.txt [1644888950573] POST /api/account/b2bfx 
./logs/http.log.txt [1644888961749] POST /api/account/b2bfx 
./logs/http.log.txt [1644888989491] POST /api/account/b2bfx 
./logs/http.log.txt [1644889011995] POST /api/account/b2bfx 
./logs/http.log.txt [1644889023515] POST /api/account/b2bfx 
./logs/http.log.txt [1644889060101] POST /api/business 
./logs/http.log.txt [1644889098065] POST /api/account/b2bfx 
./logs/http.log.txt [1644889121953] POST /api/business 
./logs/http.log.txt [1644889133873] POST /api/account/b2bfx 
./logs/http.log.txt [1644889190789] POST /api/account/b2bfx 
./logs/http.log.txt [1644889211184] POST /api/business 
./logs/http.log.txt [1644889223199] POST /api/account/b2bfx 
./logs/http.log.txt [1644889246452] POST /api/business 
./logs/http.log.txt [1644889253887] POST /api/account/b2bfx 
./logs/http.log.txt [1644889374436] POST /api/account/b2bfx 
./logs/http.log.txt [1644889380459] POST /api/account/b2bfx 
./logs/http.log.txt [1644889470065] POST /api/account/b2bfx 
./logs/http.log.txt [1644890932087] GET /api/family/31 
./logs/http.log.txt [1644890964292] GET /api/family/h 
./logs/http.log.txt [1644890971731] GET /api/family/100 
./logs/http.log.txt [1644891019711] GET /api/individual/1 
./logs/http.log.txt [1644891050139] GET /api/individual/1000 
./logs/http.log.txt [1644891053959] GET /api/individual/sdf 
./logs/http.log.txt [1644891073372] GET /api/family/31 
./logs/http.log.txt [1644891170664] GET /api/family/31 
./logs/http.log.txt [1644891210803] GET /api/family/31 
./logs/http.log.txt [1644891244820] GET /api/family/ 
./logs/http.log.txt [1644891331478] GET /api/individual/ 
./logs/http.log.txt [1644891336806] GET /api/individual/1 
./logs/http.log.txt [1644891353553] GET /api/family/999 
./logs/http.log.txt [1644891365220] GET /api/family/jhkh 
./logs/http.log.txt [1644891416424] GET /api/business/35 
./logs/http.log.txt [1644891466688] GET /api/business/35 
./logs/http.log.txt [1644892006079] GET /api/business/35 
./logs/http.log.txt [1644892072379] GET /api/business/35 
./logs/http.log.txt [1644892200132] POST /api/family/add 
./logs/http.log.txt [1644892233047] POST /api/family/add 
./logs/http.log.txt [1644892257003] POST /api/family/add 
./logs/http.log.txt [1644892278292] POST /api/family/add 
./logs/http.log.txt [1644892304220] POST /api/family/add 
./logs/http.log.txt [1644892324991] POST /api/family/add 
./logs/http.log.txt [1644892403574] POST /api/family/add 
./logs/http.log.txt [1644892437430] POST /api/family/ 
./logs/http.log.txt [1644892524037] POST /api/individual 
./logs/http.log.txt [1644892530681] POST /api/individual 
./logs/http.log.txt [1644892571315] POST /api/family/add 
./logs/http.log.txt [1644892609648] POST /api/family/add 
./logs/http.log.txt [1644892637146] POST /api/family/add 
./logs/http.log.txt [1644892709594] POST /api/individual 
./logs/http.log.txt [1644892719553] POST /api/family/add 
./logs/http.log.txt [1644892740181] POST /api/individual 
./logs/http.log.txt [1644892749455] POST /api/family/add 
./logs/http.log.txt [1644893069763] DELETE /api/family/remove 
./logs/http.log.txt [1644893078985] DELETE /api/family/remove 
./logs/http.log.txt [1644893086174] DELETE /api/family/remove 
./logs/http.log.txt [1644893093912] DELETE /api/family/remove 
./logs/http.log.txt [1644893112853] DELETE /api/family/remove 
./logs/http.log.txt [1644893170629] DELETE /api/family/remove 
./logs/http.log.txt [1644893218073] POST /api/family/ 
./logs/http.log.txt [1644893289442] DELETE /api/family/remove 
./logs/http.log.txt [1644893792581] POST /api/family/ 
./logs/http.log.txt [1644893802942] DELETE /api/family/remove 
./logs/http.log.txt [1644893829482] DELETE /api/family/remove 
./logs/http.log.txt [1644894110065] POST /api/family/ 
./logs/http.log.txt [1644894117660] DELETE /api/family/remove 
./logs/http.log.txt [1644894404014] POST /api/family/ 
./logs/http.log.txt [1644894418006] DELETE /api/family/remove 
./logs/http.log.txt [1644894580693] POST /api/family/ 
./logs/http.log.txt [1644894601348] DELETE /api/family/remove 
./logs/http.log.txt [1644894607104] DELETE /api/family/remove 
./logs/http.log.txt [1644894621625] POST /api/family/ 
./logs/http.log.txt [1644894645258] POST /api/individual 
./logs/http.log.txt [1644894652256] POST /api/individual 
./logs/http.log.txt [1644894676030] POST /api/family/ 
./logs/http.log.txt [1644894703895] DELETE /api/family/remove 
./logs/http.log.txt [1644894725993] POST /api/individual 
./logs/http.log.txt [1644894735629] POST /api/individual 
./logs/http.log.txt [1644894753460] POST /api/family/add 
./logs/http.log.txt [1644894757230] DELETE /api/family/remove 
./logs/http.log.txt [1644894801431] DELETE /api/family/remove 
./logs/http.log.txt [1644894809788] DELETE /api/family/remove 
./logs/http.log.txt [1644894856209] DELETE /api/family/remove 
./logs/http.log.txt [1644894970198] DELETE /api/family/remove 
./logs/http.log.txt [1644894981695] DELETE /api/family/remove 
./logs/http.log.txt [1644895095487] POST /api/family/ 
./logs/http.log.txt [1644895134997] POST /api/family/ 
./logs/http.log.txt [1644895169415] POST /api/individual 
./logs/http.log.txt [1644895183287] POST /api/individual 
./logs/http.log.txt [1644895192332] POST /api/individual 
./logs/http.log.txt [1644895270420] POST /api/family/ 
./logs/http.log.txt [1644895328485] DELETE /api/family/remove 
./logs/http.log.txt [1644895345206] DELETE /api/family/remove 
./logs/http.log.txt [1644895558300] POST /api/family/ 
./logs/http.log.txt [1644895570554] DELETE /api/family/close/52 
./logs/http.log.txt [1644895661877] GET /api/family/52 
./logs/http.log.txt [1644895741172] POST /api/family/ 
./logs/http.log.txt [1644895751688] DELETE /api/family/close/53 
./logs/http.log.txt [1644895819671] POST /api/family/ 
./logs/http.log.txt [1644895829792] POST /api/individual 
./logs/http.log.txt [1644895835244] POST /api/individual 
./logs/http.log.txt [1644895847083] POST /api/family/ 
./logs/http.log.txt [1644895855967] DELETE /api/family/close/56 
./logs/http.log.txt [1644895926660] POST /api/family/ 
./logs/http.log.txt [1644895939622] DELETE /api/family/close/57 
./logs/http.log.txt [1644896011757] POST /api/family/ 
./logs/http.log.txt [1644896019662] DELETE /api/family/close/58 
./logs/http.log.txt [1644896894139] POST /api/family/ 
./logs/http.log.txt [1644896900105] POST /api/individual 
./logs/http.log.txt [1644896904348] POST /api/individual 
./logs/http.log.txt [1644896911944] POST /api/individual 
./logs/http.log.txt [1644896965306] POST /api/family/ 
./logs/http.log.txt [1644896976721] DELETE /api/family/close/61 
./logs/http.log.txt [1644897022452] POST /api/family/ 
./logs/http.log.txt [1644897032610] DELETE /api/family/close/62 
./logs/http.log.txt [1644897130606] POST /api/individual 
./logs/http.log.txt [1644897139957] POST /api/individual 
./logs/http.log.txt [1644897163725] PUT /api/account/status 
./logs/http.log.txt [1644897797033] PUT /api/account/status 
./logs/http.log.txt [1644897814770] PUT /api/account/status 
./logs/http.log.txt [1644897874331] PUT /api/account/status 
./logs/http.log.txt [1644897891601] PUT /api/account/status 
./logs/http.log.txt [1644897894158] PUT /api/account/status 
./logs/http.log.txt [1644897925476] PUT /api/account/status 
./logs/http.log.txt [1644897932189] PUT /api/account/status 
./logs/http.log.txt [1644897962429] PUT /api/account/status 
./logs/http.log.txt [1644904680903] GET /api/business/dfgdg 
./logs/http.log.txt [1644904689319] GET /api/business/54646 
./logs/http.log.txt [1644904740142] GET /api/business/54646 
./logs/http.log.txt [1644904741014] GET /api/business/54646 
./logs/http.log.txt [1644907924469] POST /api/account/b2bfx 
./logs/http.log.txt [1644911378574] POST /api/individual 
./logs/http.log.txt [1644911419943] POST /api/family/ 
./logs/http.log.txt [1644911432998] POST /api/family/ 
./logs/http.log.txt [1644911458664] GET /api/individual/6 
./logs/http.log.txt [1644911525972] POST /api/individual 
./logs/http.log.txt [1644911544411] POST /api/family/ 
./logs/http.log.txt [1644912416262] PUT /api/account/status 
./logs/http.log.txt [1644912630890] PUT /api/account/status 
./logs/http.log.txt [1644912672796] PUT /api/account/status 
./logs/http.log.txt [1644912737025] PUT /api/account/status 
./logs/http.log.txt [1644912745646] POST /api/family/ 
